Twitter Sentiment Analysis
…
Tokenizing Text and Word Frequency

# Tokenize the text and see frequency of words.
tweets_slc %>% 
  unnest_tokens(word, text)%>%
  anti_join(stop_words) %>%
  count(word, sort=TRUE) 

## Joining, by = "word"

## # A tibble: 12,794 x 2
##    word          n
##    <chr>     <int>
##  1 president  1219
##  2 people     1010
##  3 democrats   898
##  4 trump       853
##  5 country     729
##  6 news        671
##  7 border      648
##  8 fake        589
##  9 time        478
## 10 media       431
## #  with 12,784 more rows

# We can see that words such as "president, trump" not pertaining to trade, so we remove them.
tweets_slc <- tweets_slc %>% mutate(text=tolower(text))
tweets_slc$text <- gsub("president?","", tweets_slc$text)
tweets_slc$text <- gsub("trump?","", tweets_slc$text)

# Retokenize the text and check to see if words being removed.
tweets_slc %>% 
  unnest_tokens(word, text)%>%
  anti_join(stop_words) %>%
  count(word, sort=TRUE)

## Joining, by = "word"

## # A tibble: 12,744 x 2
##    word          n
##    <chr>     <int>
##  1 people     1010
##  2 democrats   898
##  3 country     729
##  4 news        671
##  5 border      648
##  6 fake        589
##  7 time        479
##  8 media       431
##  9 america     421
## 10 united      414
## #  with 12,734 more rows
…
